Ohio Rural Interstate – Daily Speed (ARIMA)
…
day1<- df_RMA[,-c(1)] %>% group_by(MonthDay) %>% summarize(Speed_All_Mean=mean(spd_av, na.rm=TRUE))
day1

## # A tibble: 365 x 2
##    MonthDay Speed_All_Mean
##    <chr>             <dbl>
##  1 01_01              63.0
##  2 01_02              63.8
##  3 01_03              61.9
##  4 01_04              62.5
##  5 01_05              61.8
##  6 01_06              57.4
##  7 01_07              60.0
##  8 01_08              60.7
##  9 01_09              58.4
## 10 01_10              62.5
## # ... with 355 more rows
…
