Ohio Rural Two Lane – Daily Speed (ARIMA)
…
day1<- df_R2[,-c(1)] %>% group_by(MonthDay) %>% summarize(Speed_All_Mean=mean(spd_av, na.rm=TRUE))
day1

## # A tibble: 365 x 2
##    MonthDay Speed_All_Mean
##    <chr>             <dbl>
##  1 01_01              47.7
##  2 01_02              46.1
##  3 01_03              44.2
##  4 01_04              45.6
##  5 01_05              45.2
##  6 01_06              41.9
##  7 01_07              42.9
##  8 01_08              43.5
##  9 01_09              41.5
## 10 01_10              45.7
## # ... with 355 more rows
…
