Ohio Rural Multilane Divided – Daily Speed (ARIMA)
…
day1<- df_RMD[,-c(1)] %>% group_by(MonthDay) %>% summarize(Speed_All_Mean=mean(spd_av, na.rm=TRUE))
day1

## # A tibble: 365 x 2
##    MonthDay Speed_All_Mean
##    <chr>             <dbl>
##  1 01_01              58.7
##  2 01_02              58.3
##  3 01_03              56.8
##  4 01_04              58.2
##  5 01_05              57.1
##  6 01_06              52.4
##  7 01_07              55.7
##  8 01_08              56.2
##  9 01_09              53.5
## 10 01_10              57.9
## # ... with 355 more rows
…
