Ohio Rural Multilane Undivided – Daily Speed (ARIMA)
…
day1<- df_RMU[,-c(1)] %>% group_by(MonthDay) %>% summarize(Speed_All_Mean=mean(spd_av, na.rm=TRUE))
day1

## # A tibble: 365 x 2
##    MonthDay Speed_All_Mean
##    <chr>             <dbl>
##  1 01_01              42.5
##  2 01_02              40.1
##  3 01_03              38.9
##  4 01_04              40.6
##  5 01_05              38.3
##  6 01_06              36.2
##  7 01_07              36.7
##  8 01_08              38.0
##  9 01_09              35.1
## 10 01_10              40.4
## # ... with 355 more rows
…
