WA Rural Interstate– Daily Speed (ARIMA)
…
day1<- df_RI[,-c(1)] %>% group_by(MonthDay) %>% summarize(Speed_All_Mean=mean(spd_av, na.rm=TRUE))
day1

## # A tibble: 365 x 2
##    MonthDay Speed_All_Mean
##    <chr>             <dbl>
##  1 01_01              60.4
##  2 01_02              59.9
##  3 01_03              60.3
##  4 01_04              55.3
##  5 01_05              59.0
##  6 01_06              59.4
##  7 01_07              59.2
##  8 01_08              59.2
##  9 01_09              60.0
## 10 01_10              59.9
## # ... with 355 more rows
…
