Washington Rural Two-Lane – Daily Speed (ARIMA)
…
day1<- df_R2[,-c(1)] %>% group_by(MonthDay) %>% summarize(Speed_All_Mean=mean(spd_av, na.rm=TRUE))
day1

## # A tibble: 365 x 2
##    MonthDay Speed_All_Mean
##    <chr>             <dbl>
##  1 01_01              49.4
##  2 01_02              48.0
##  3 01_03              48.1
##  4 01_04              44.6
##  5 01_05              47.7
##  6 01_06              48.5
##  7 01_07              48.2
##  8 01_08              48.2
##  9 01_09              48.9
## 10 01_10              48.5
## # ... with 355 more rows
…
