Washington Rural Multi-lane Divided
…
day1<- df_RMD[,-c(1)] %>% group_by(MonthDay) %>% summarize(Speed_All_Mean=mean(spd_av, na.rm=TRUE))
day1

## # A tibble: 365 x 2
##    MonthDay Speed_All_Mean
##    <chr>             <dbl>
##  1 01_01              58.7
##  2 01_02              56.4
##  3 01_03              57.6
##  4 01_04              54.7
##  5 01_05              55.9
##  6 01_06              56.7
##  7 01_07              56.5
##  8 01_08              56.8
##  9 01_09              56.9
## 10 01_10              57.6
## # ... with 355 more rows
…
