Washington Rural Multi-lane Undivided
…
day1<- df_RMU[,-c(1)] %>% group_by(MonthDay) %>% summarize(Speed_All_Mean=mean(spd_av, na.rm=TRUE))
day1

## # A tibble: 365 x 2
##    MonthDay Speed_All_Mean
##    <chr>             <dbl>
##  1 01_01              36.6
##  2 01_02              35.9
##  3 01_03              37.0
##  4 01_04              33.9
##  5 01_05              36.0
##  6 01_06              37.5
##  7 01_07              37.3
##  8 01_08              36.5
##  9 01_09              36.0
## 10 01_10              35.8
## # ... with 355 more rows
…
