North Carolina Rural Multi-lane Divided – Daily Speed (ARIMA)
…
day1<- df_RMD[,-c(1)] %>% group_by(MonthDay) %>% summarize(Speed_All_Mean=mean(spd_av, na.rm=TRUE))
day1

## # A tibble: 365 x 2
##    MonthDay Speed_All_Mean
##    <chr>             <dbl>
##  1 01_01              53.1
##  2 01_02              50.3
##  3 01_03              51.5
##  4 01_04              52.9
##  5 01_05              49.6
##  6 01_06              49.7
##  7 01_07              49.4
##  8 01_08              49.5
##  9 01_09              49.5
## 10 01_10              51.9
## # ... with 355 more rows
…
