North Carolina Rural Two-lane – Daily Speed (ARIMA)
…
day1<- df_R2[,-c(1)] %>% group_by(MonthDay) %>% summarize(Speed_All_Mean=mean(spd_av, na.rm=TRUE))
day1

## # A tibble: 365 x 2
##    MonthDay Speed_All_Mean
##    <chr>             <dbl>
##  1 01_01              33.4
##  2 01_02              32.3
##  3 01_03              32.4
##  4 01_04              33.7
##  5 01_05              31.8
##  6 01_06              31.5
##  7 01_07              31.4
##  8 01_08              31.9
##  9 01_09              31.6
## 10 01_10              32.4
## # ... with 355 more rows
…
