North Carolina Rural Interstate – Daily Speed (ARIMA)
…
day1<- df_RI[,-c(1)] %>% group_by(MonthDay) %>% summarize(Speed_All_Mean=mean(spd_av, na.rm=TRUE))
day1

## # A tibble: 365 x 2
##    MonthDay Speed_All_Mean
##    <chr>             <dbl>
##  1 01_01              49.8
##  2 01_02              43.5
##  3 01_03              47.4
##  4 01_04              50.9
##  5 01_05              43.1
##  6 01_06              42.8
##  7 01_07              42.7
##  8 01_08              43.2
##  9 01_09              42.9
## 10 01_10              46.9
## # ... with 355 more rows
…
