North Carolina Rural Multi-lane Undivided – Daily Speed (ARIMA)
…
day1<- df_RMU[,-c(1)] %>% group_by(MonthDay) %>% summarize(Speed_All_Mean=mean(spd_av, na.rm=TRUE))
day1

## # A tibble: 365 x 2
##    MonthDay Speed_All_Mean
##    <chr>             <dbl>
##  1 01_01              33.8
##  2 01_02              33.7
##  3 01_03              33.0
##  4 01_04              34.1
##  5 01_05              34.7
##  6 01_06              34.2
##  7 01_07              34.3
##  8 01_08              34.7
##  9 01_09              33.8
## 10 01_10              34.5
## # ... with 355 more rows
…
